{"name":"Get list of all USERS","id":"resources-user;get-list-of-all-users","testSteps":[{"number":1,"description":"Given Get list of all users","duration":10,"startTime":"2022-09-28T13:06:12.844256+07:00[Asia/Jakarta]","result":"SUCCESS","precondition":false,"level":0},{"number":2,"description":"When Send request get all users","duration":321,"startTime":"2022-09-28T13:06:12.856223+07:00[Asia/Jakarta]","result":"SUCCESS","precondition":false,"level":0,"children":[{"number":3,"description":"GET https://reqres.in/api/users","duration":0,"startTime":"2022-09-28T13:06:13.175981+07:00[Asia/Jakarta]","result":"SUCCESS","restQuery":{"method":"GET","path":"https://reqres.in/api/users","content":"","contentType":"null","requestHeaders":"Accept\u003d*/*","requestCookies":"","responseHeaders":"Date: Wed, 28 Sep 2022 06:06:13 GMT\nContent-Type: application/json; charset\u003dutf-8\nTransfer-Encoding: chunked\nConnection: keep-alive\nX-Powered-By: Express\nAccess-Control-Allow-Origin: *\nEtag: W/\"3e4-2RLXvr5wTg9YQ6aH95CkYoFNuO8\"\nVia: 1.1 vegur\nCache-Control: max-age\u003d14400\nCF-Cache-Status: HIT\nAge: 1118\nReport-To: {\"endpoints\":[{\"url\":\"https:\\/\\/a.nel.cloudflare.com\\/report\\/v3?s\u003dRTLVrrXZJzJCeFysav7pdAOfdJ%2BH5kXL4NIMrlC4RjEImiv9TOhnZ5dt5DAG14aKJjTAIHrrLZO6JJpwVAhzd6Z7XqhllIzkvjZ%2FZ7eOuUVcyvOdaBu8bgqeOQ%3D%3D\"}],\"group\":\"cf-nel\",\"max_age\":604800}\nNEL: {\"success_fraction\":0,\"report_to\":\"cf-nel\",\"max_age\":604800}\nVary: Accept-Encoding\nServer: cloudflare\nCF-RAY: 751a4ab3feae46f7-SIN\nContent-Encoding: gzip","responseCookies":"","responseBody":"{\n    \"page\": 1,\n    \"per_page\": 6,\n    \"total\": 12,\n    \"total_pages\": 2,\n    \"data\": [\n        {\n            \"id\": 1,\n            \"email\": \"george.bluth@reqres.in\",\n            \"first_name\": \"George\",\n            \"last_name\": \"Bluth\",\n            \"avatar\": \"https://reqres.in/img/faces/1-image.jpg\"\n        },\n        {\n            \"id\": 2,\n            \"email\": \"janet.weaver@reqres.in\",\n            \"first_name\": \"Janet\",\n            \"last_name\": \"Weaver\",\n            \"avatar\": \"https://reqres.in/img/faces/2-image.jpg\"\n        },\n        {\n            \"id\": 3,\n            \"email\": \"emma.wong@reqres.in\",\n            \"first_name\": \"Emma\",\n            \"last_name\": \"Wong\",\n            \"avatar\": \"https://reqres.in/img/faces/3-image.jpg\"\n        },\n        {\n            \"id\": 4,\n            \"email\": \"eve.holt@reqres.in\",\n            \"first_name\": \"Eve\",\n            \"last_name\": \"Holt\",\n            \"avatar\": \"https://reqres.in/img/faces/4-image.jpg\"\n        },\n        {\n            \"id\": 5,\n            \"email\": \"charles.morris@reqres.in\",\n            \"first_name\": \"Charles\",\n            \"last_name\": \"Morris\",\n            \"avatar\": \"https://reqres.in/img/faces/5-image.jpg\"\n        },\n        {\n            \"id\": 6,\n            \"email\": \"tracey.ramos@reqres.in\",\n            \"first_name\": \"Tracey\",\n            \"last_name\": \"Ramos\",\n            \"avatar\": \"https://reqres.in/img/faces/6-image.jpg\"\n        }\n    ],\n    \"support\": {\n        \"url\": \"https://reqres.in/#support-heading\",\n        \"text\": \"To keep ReqRes free, contributions towards server costs are appreciated!\"\n    }\n}","statusCode":200},"precondition":false,"level":1}]},{"number":4,"description":"Then Status code should be \"200\" - \"OK\"","duration":6,"startTime":"2022-09-28T13:06:13.178417+07:00[Asia/Jakarta]","result":"SUCCESS","precondition":false,"level":0},{"number":5,"description":"And Response body \"page\" should return \"1\"","duration":24,"startTime":"2022-09-28T13:06:13.185877+07:00[Asia/Jakarta]","result":"SUCCESS","precondition":false,"level":0,"children":[{"number":6,"description":"Validate response: page, 1","duration":22,"startTime":"2022-09-28T13:06:13.187088+07:00[Asia/Jakarta]","result":"SUCCESS","precondition":false,"level":1}]}],"userStory":{"id":"resources-user","storyName":"resources-user","path":"classpath:features/resources-user.feature","type":"feature"},"featureTag":{"name":"Classpath:features/resources-user","type":"feature","displayName":"Classpath:features/resources-user"},"title":"Get list of all USERS","description":"","tags":[{"name":"resources-user","type":"feature","displayName":"resources-user"},{"name":"get","type":"tag","displayName":"get"},{"name":"users","type":"tag","displayName":"users"}],"startTime":"2022-09-28T13:06:12.838799+07:00[Asia/Jakarta]","duration":372,"projectKey":"","isManualTestingUpToDate":false,"manual":false,"testSource":"Cucumber","result":"SUCCESS"}